{
    "pagination": {
        "page": 1,
        "perPage": 10,
        "pages": 4,
        "total": 33
    },
    "data": [
        {
            "id": 3532,
            "title": "BABA GHANNOUJ A DOMÁCÍ PITA CHLÉB",
            "urls": {
                "recipes.view": "http://www.jidelniplan.cz/recepty/baba-ghannouj-a-domaci-pita-chleb"
            }
        },
        {
            "id": 3530,
            "title": "KUŘE MAKHANI / BUTTER CHICKEN / MURG MAKHANI",
            "urls": {
                "recipes.view": "http://www.jidelniplan.cz/recepty/kure-makhani-butter-chicken-murg-makhani"
            }
        },
        {
            "id": 3506,
            "title": "PEČENÁ DÝNĚ HOKAIDO S VAJEČNOU OMÁČKOU",
            "urls": {
                "recipes.view": "http://www.jidelniplan.cz/recepty/pecena-dyne-hokaido-s-vajecnou-omackou"
            }
        },
        {
            "id": 3501,
            "title": "Tiramisu zdravě",
            "urls": {
                "recipes.view": "http://www.jidelniplan.cz/recepty/tiramisu-zdrave"
            }
        },
        {
            "id": 3498,
            "title": "Avokadový krém s lískovými oříšky",
            "urls": {
                "recipes.view": "http://www.jidelniplan.cz/recepty/avokadovy-krem-s-liskovymi-orisky"
            }
        },
        {
            "id": 3496,
            "title": "Latte řezy",
            "urls": {
                "recipes.view": "http://www.jidelniplan.cz/recepty/latte-rezy-1"
            }
        },
        {
            "id": 3494,
            "title": "Knedlíky fitness",
            "urls": {
                "recipes.view": "http://www.jidelniplan.cz/recepty/knedliky-fitness"
            }
        },
        {
            "id": 3492,
            "title": "Kuře na paprice",
            "urls": {
                "recipes.view": "http://www.jidelniplan.cz/recepty/kure-na-paprice"
            }
        },
        {
            "id": 3412,
            "title": "Borůvkový dort s bílou čokoládou",
            "urls": {
                "recipes.view": "http://www.jidelniplan.cz/recepty/boruvkovy-dort-s-bilou-cokoladou"
            }
        },
        {
            "id": 3411,
            "title": "Red Velvet-buchta z červené řepy",
            "urls": {
                "recipes.view": "http://www.jidelniplan.cz/recepty/red-velvet-buchta-z-cervene-repy"
            }
        }
    ]
}
